%!PS-Adobe-2.0 EPSF-2.0
%%BoundingBox:  0 0 567 409
%%Title: ./results/example_UsingC_combined_meas_profileLR.eps: 
%%Creator: ROOT Version 6.22/06
%%CreationDate: Thu Feb 25 18:44:26 2021
%%DocumentNeededResources: ProcSet (FontSetInit)
%%EndComments
%%BeginProlog
80 dict begin
/s {stroke} def /l {lineto} def /m {moveto} def /t {translate} def
/r {rotate} def /rl {roll}  def /R {repeat} def
/d {rlineto} def /rm {rmoveto} def /gr {grestore} def /f {eofill} def
/c {setrgbcolor} def /black {0 setgray} def /sd {setdash} def
/cl {closepath} def /sf {scalefont setfont} def /lw {setlinewidth} def
/box {m dup 0 exch d exch 0 d 0 exch neg d cl} def
/NC{systemdict begin initclip end}def/C{NC box clip newpath}def
/bl {box s} def /bf {gsave box gsave f grestore 1 lw [] 0 sd s grestore} def /Y { 0 exch d} def /X { 0 d} def 
/K {{pop pop 0 moveto} exch kshow} bind def
/ita {/ang 15 def gsave [1 0 ang dup sin exch cos div 1 0 0] concat} def 
/mp {newpath /y exch def /x exch def} def
/side {[w .77 mul w .23 mul] .385 w mul sd w 0 l currentpoint t -144 r} def
/mr {mp x y w2 0 360 arc} def /m24 {mr s} def /m20 {mr f} def
/mb {mp x y w2 add m w2 neg 0 d 0 w neg d w 0 d 0 w d cl} def
/mt {mp x y w2 add m w2 neg w neg d w 0 d cl} def
/w4 {w 4 div} def
/w6 {w 6 div} def
/w8 {w 8 div} def
/m21 {mb f} def /m25 {mb s} def /m22 {mt f} def /m26{mt s} def
/m23 {mp x y w2 sub m w2 w d w neg 0 d cl f} def
/m27 {mp x y w2 add m w3 neg w2 neg d w3 w2 neg d w3 w2 d cl s} def
/m28 {mp x w2 sub y w2 sub w3 add m w3 0 d  0 w3 neg d w3 0 d 0 w3 d w3 0 d  0 w3 d w3 neg 0 d 0 w3 d w3 neg 0 d 0 w3 neg d w3 neg 0 d cl s } def
/m29 {mp gsave x w2 sub y w2 add w3 sub m currentpoint t 4 {side} repeat cl fill gr} def
/m30 {mp gsave x w2 sub y w2 add w3 sub m currentpoint t 4 {side} repeat cl s gr} def
/m31 {mp x y w2 sub m 0 w d x w2 sub y m w 0 d x w2 .707 mul sub y w2 .707 mul add m w 1.44 div w 1.44 div neg d x w2 .707 mul sub y w2 .707 mul sub m w 1.44 div w 1.44 div d s} def
/m32 {mp x y w2 sub m w2 w d w neg 0 d cl s} def
/m33 {mp x y w2 add m w3 neg w2 neg d w3 w2 neg d w3 w2 d cl f} def
/m34 {mp x w2 sub y w2 sub w3 add m w3 0 d  0 w3 neg d w3 0 d 0 w3 d w3 0 d  0 w3 d w3 neg 0 d 0 w3 d w3 neg 0 d 0 w3 neg d w3 neg 0 d cl f } def
/m35 {mp x y w2 add m w2 neg w2 neg d w2 w2 neg d w2 w2 d w2 neg w2 d x y w2 sub m 0 w d x w2 sub y m w 0 d s} def
/m36 {mb x w2 sub y w2 add m w w neg d x w2 sub y w2 sub m w w d s} def
/m37 {mp x y m w4 neg w2 d w4 neg w2 neg d w2 0 d  w4 neg w2 neg d w2 0 d w4 neg w2 d w2 0 d w4 neg w2 d w4 neg w2 neg d cl s} def
/m38 {mp x w4 sub y w2 add m w4 neg w4 neg d 0 w2 neg d w4 w4 neg d w2 0 d w4 w4 d 0 w2 d w4 neg w4 d w2 neg 0 d x y w2 sub m 0 w d x w2 sub y m w 0 d cl s} def
/m39 {mp x y m w4 neg w2 d w4 neg w2 neg d w2 0 d  w4 neg w2 neg d w2 0 d w4 neg w2 d w2 0 d w4 neg w2 d w4 neg w2 neg d cl f} def
/m40 {mp x y m w4 w2 d w4 w4 neg d w2 neg w4 neg d w2 w4 neg d w4 neg w4 neg d w4 neg w2 d w4 neg w2 neg d w4 neg w4 d w2 w4 d w2 neg w4 d w4 w4 d w4 w2 neg d cl s} def
/m41 {mp x y m w4 w2 d w4 w4 neg d w2 neg w4 neg d w2 w4 neg d w4 neg w4 neg d w4 neg w2 d w4 neg w2 neg d w4 neg w4 d w2 w4 d w2 neg w4 d w4 w4 d w4 w2 neg d cl f} def
/m42 {mp x y w2 add m w8 neg w2 -3 4 div mul d w2 -3 4 div mul w8 neg d w2 3 4 div mul w8 neg d w8 w2 -3 4 div mul d w8 w2 3 4 div mul d w2 3 4 div mul w8 d w2 -3 4 div mul w8 d w8 neg w2 3 4 div mul d cl s} def
/m43 {mp x y w2 add m w8 neg w2 -3 4 div mul d w2 -3 4 div mul w8 neg d w2 3 4 div mul w8 neg d w8 w2 -3 4 div mul d w8 w2 3 4 div mul d w2 3 4 div mul w8 d w2 -3 4 div mul w8 d w8 neg w2 3 4 div mul d cl f} def
/m44 {mp x y m w6 neg w2 d w2 2 3 div mul 0 d w6 neg w2 neg d w2 w6 d 0 w2 -2 3 div mul d w2 neg w6 d w6 w2 neg d w2 -2 3 div mul 0 d w6 w2 d w2 neg w6 neg d 0 w2 2 3 div mul d w2 w6 neg d cl s} def
/m45 {mp x y m w6 neg w2 d w2 2 3 div mul 0 d w6 neg w2 neg d w2 w6 d 0 w2 -2 3 div mul d w2 neg w6 d w6 w2 neg d w2 -2 3 div mul 0 d w6 w2 d w2 neg w6 neg d 0 w2 2 3 div mul d w2 w6 neg d cl f} def
/m46 {mp x y w4 add m w4 neg w4 d w4 neg w4 neg d  w4 w4 neg d w4 neg w4 neg d w4 w4 neg d w4 w4 d w4 w4 neg d w4 w4 d w4 neg w4 d w4 w4 d w4 neg w4 d w4 neg w4 neg d cl s} def
/m47 {mp x y w4 add m w4 neg w4 d w4 neg w4 neg d w4 w4 neg d w4 neg w4 neg d  w4 w4 neg d w4 w4 d w4 w4 neg d w4 w4 d w4 neg w4 d w4 w4 d w4 neg w4 d w4 neg w4 neg d cl f} def
/m48 {mp x y w4 add m w4 neg w4 d w4 neg w4 neg d w4 w4 neg d  w4 neg w4 neg d w4 w4 neg d w4 w4 d w4 w4 neg d w4 w4 d w4 neg w4 d w4 w4 d w4 neg w4 d w4 neg w4 neg d  w4 w4 neg d w4 neg w4 neg d w4 neg w4 d w4 w4 d cl f} def
/m49 {mp x w2 sub w3 add y w2 sub w3 add m  0 w3 neg d w3 0 d 0 w3 d w3 0 d 0 w3 d w3 neg 0 d 0 w3 d w3 neg 0 d 0 w3 neg d w3 neg 0 d 0 w3 neg d w3 0 d 0 w3 d w3 0 d 0 w3 neg d w3 neg 0 d cl f } def
/m2 {mp x y w2 sub m 0 w d x w2 sub y m w 0 d s} def
/m5 {mp x w2 .707 mul sub y w2 .707 mul sub m w 1.44 div w 1.44 div d x w2 .707 mul sub y w2 .707 mul add m w 1.44 div w 1.44 div neg d s} def
%%IncludeResource: ProcSet (FontSetInit)
%%IncludeResource: font Times-Roman
%%IncludeResource: font Times-Italic
%%IncludeResource: font Times-Bold
%%IncludeResource: font Times-BoldItalic
%%IncludeResource: font Helvetica
%%IncludeResource: font Helvetica-Oblique
%%IncludeResource: font Helvetica-Bold
%%IncludeResource: font Helvetica-BoldOblique
%%IncludeResource: font Courier
%%IncludeResource: font Courier-Oblique
%%IncludeResource: font Courier-Bold
%%IncludeResource: font Courier-BoldOblique
%%IncludeResource: font Symbol
%%IncludeResource: font ZapfDingbats
/reEncode {exch findfont dup length dict begin {1 index /FID eq  {pop pop} {def} ifelse } forall /Encoding exch def currentdict end dup /FontName get exch definefont pop } def [/Times-Bold /Times-Italic /Times-BoldItalic /Helvetica /Helvetica-Oblique
 /Helvetica-Bold /Helvetica-BoldOblique /Courier /Courier-Oblique /Courier-Bold /Courier-BoldOblique /Times-Roman /AvantGarde-Book /AvantGarde-BookOblique /AvantGarde-Demi /AvantGarde-DemiOblique /Bookman-Demi /Bookman-DemiItalic /Bookman-Light
 /Bookman-LightItalic /Helvetica-Narrow /Helvetica-Narrow-Bold /Helvetica-Narrow-BoldOblique /Helvetica-Narrow-Oblique /NewCenturySchlbk-Roman /NewCenturySchlbk-Bold /NewCenturySchlbk-BoldItalic /NewCenturySchlbk-Italic /Palatino-Bold
 /Palatino-BoldItalic /Palatino-Italic /Palatino-Roman ] {ISOLatin1Encoding reEncode } forall
%%EndProlog
%%BeginSetup
%%EndSetup
newpath  gsave  .25 .25 scale  gsave  0 0 t black[  ] 0 sd 3 lw 1 1 1 c 2268 1637 0 0 bf black 1 1 1 c 1769 1211 363 262 bf black 1769 1211 363 262 bl 363 262 m 1769 X s 363 300 m -38 Y s 422 281 m -19 Y s 481 281 m -19 Y s 540 281 m -19 Y s 599 281
 m -19 Y s 658 300 m -38 Y s 717 281 m -19 Y s 776 281 m -19 Y s 835 281 m -19 Y s 893 281 m -19 Y s 952 300 m -38 Y s 1011 281 m -19 Y s 1070 281 m -19 Y s 1129 281 m -19 Y s 1188 281 m -19 Y s 1247 300 m -38 Y s 1306 281 m -19 Y s 1365 281 m -19 Y
 s 1424 281 m -19 Y s 1483 281 m -19 Y s 1542 300 m -38 Y s 1601 281 m -19 Y s 1660 281 m -19 Y s 1719 281 m -19 Y s 1778 281 m -19 Y s 1837 300 m -38 Y s 1896 281 m -19 Y s 1955 281 m -19 Y s 2014 281 m -19 Y s 2073 281 m -19 Y s 2132 300 m -38 Y s
 2132 300 m -38 Y s
 gsave  2268 1637 0 0 C 341.01 190.397 t 0 r /Helvetica findfont 76.7273 sf 0 0 m (0) show NC gr 
 gsave  2268 1637 0 0 C 602.451 190.397 t 0 r /Helvetica findfont 76.7273 sf 0 0 m (0.5) show NC gr 
 gsave  2268 1637 0 0 C 937.778 190.397 t 0 r /Helvetica findfont 76.7273 sf 0 0 m (1) show NC gr 
 gsave  2268 1637 0 0 C 1190.69 190.397 t 0 r /Helvetica findfont 76.7273 sf 0 0 m (1.5) show NC gr 
 gsave  2268 1637 0 0 C 1520.34 190.397 t 0 r /Helvetica findfont 76.7273 sf 0 0 m (2) show NC gr 
 gsave  2268 1637 0 0 C 1781.78 190.397 t 0 r /Helvetica findfont 76.7273 sf 0 0 m (2.5) show NC gr 
 gsave  2268 1637 0 0 C 2111.42 190.397 t 0 r /Helvetica findfont 76.7273 sf 0 0 m (3) show NC gr 
 gsave  2268 1637 0 0 C 1571.49 56.835 t 0 r /Helvetica findfont 76.7273 sf 0 0 m (SigXsecOverSM) show NC gr  363 1473 m 1769 X s 363 1435 m 38 Y s 422 1454 m 19 Y s 481 1454 m 19 Y s 540 1454 m 19 Y s 599 1454 m 19 Y s 658 1435 m 38 Y s 717 1454 m
 19 Y s 776 1454 m 19 Y s 835 1454 m 19 Y s 893 1454 m 19 Y s 952 1435 m 38 Y s 1011 1454 m 19 Y s 1070 1454 m 19 Y s 1129 1454 m 19 Y s 1188 1454 m 19 Y s 1247 1435 m 38 Y s 1306 1454 m 19 Y s 1365 1454 m 19 Y s 1424 1454 m 19 Y s 1483 1454 m 19 Y s
 1542 1435 m 38 Y s 1601 1454 m 19 Y s 1660 1454 m 19 Y s 1719 1454 m 19 Y s 1778 1454 m 19 Y s 1837 1435 m 38 Y s 1896 1454 m 19 Y s 1955 1454 m 19 Y s 2014 1454 m 19 Y s 2073 1454 m 19 Y s 2132 1435 m 38 Y s 2132 1435 m 38 Y s 363 262 m 1211 Y s
 413 262 m -50 X s 388 292 m -25 X s 388 322 m -25 X s 388 353 m -25 X s 413 383 m -50 X s 388 413 m -25 X s 388 444 m -25 X s 388 474 m -25 X s 413 504 m -50 X s 388 534 m -25 X s 388 565 m -25 X s 388 595 m -25 X s 413 625 m -50 X s 388 656 m -25 X
 s 388 686 m -25 X s 388 716 m -25 X s 413 746 m -50 X s 388 777 m -25 X s 388 807 m -25 X s 388 837 m -25 X s 413 868 m -50 X s 388 898 m -25 X s 388 928 m -25 X s 388 958 m -25 X s 413 989 m -50 X s 388 1019 m -25 X s 388 1049 m -25 X s 388 1080 m
 -25 X s 413 1110 m -50 X s 388 1140 m -25 X s 388 1170 m -25 X s 388 1201 m -25 X s 413 1231 m -50 X s 388 1261 m -25 X s 388 1291 m -25 X s 388 1322 m -25 X s 413 1352 m -50 X s 388 1382 m -25 X s 388 1413 m -25 X s 388 1443 m -25 X s 413 1473 m
 -50 X s
 gsave  2268 1637 0 0 C 309.751 235.865 t 0 r /Helvetica findfont 76.7273 sf 0 0 m (0) show NC gr 
 gsave  2268 1637 0 0 C 244.391 355.219 t 0 r /Helvetica findfont 76.7273 sf 0 0 m (0.2) show NC gr 
 gsave  2268 1637 0 0 C 244.391 477.414 t 0 r /Helvetica findfont 76.7273 sf 0 0 m (0.4) show NC gr 
 gsave  2268 1637 0 0 C 244.391 599.609 t 0 r /Helvetica findfont 76.7273 sf 0 0 m (0.6) show NC gr 
 gsave  2268 1637 0 0 C 244.391 718.963 t 0 r /Helvetica findfont 76.7273 sf 0 0 m (0.8) show NC gr 
 gsave  2268 1637 0 0 C 321.118 838.316 t 0 r /Helvetica findfont 76.7273 sf 0 0 m (1) show NC gr 
 gsave  2268 1637 0 0 C 244.391 957.67 t 0 r /Helvetica findfont 76.7273 sf 0 0 m (1.2) show NC gr 
 gsave  2268 1637 0 0 C 244.391 1079.86 t 0 r /Helvetica findfont 76.7273 sf 0 0 m (1.4) show NC gr 
 gsave  2268 1637 0 0 C 244.391 1204.9 t 0 r /Helvetica findfont 76.7273 sf 0 0 m (1.6) show NC gr 
 gsave  2268 1637 0 0 C 244.391 1324.26 t 0 r /Helvetica findfont 76.7273 sf 0 0 m (1.8) show NC gr 
 gsave  2268 1637 0 0 C 309.751 1443.61 t 0 r /Helvetica findfont 76.7273 sf 0 0 m (2) show NC gr 
 gsave  2268 1637 0 0 C 127.879 1008.82 t 90 r /Helvetica findfont 76.7273 sf 0 0 m (\255log likelihood) show NC gr  2132 262 m 1211 Y s 2081 262 m 51 X s 2106 292 m 26 X s 2106 322 m 26 X s 2106 353 m 26 X s 2081 383 m 51 X s 2106 413 m 26 X s 2106
 444 m 26 X s 2106 474 m 26 X s 2081 504 m 51 X s 2106 534 m 26 X s 2106 565 m 26 X s 2106 595 m 26 X s 2081 625 m 51 X s 2106 656 m 26 X s 2106 686 m 26 X s 2106 716 m 26 X s 2081 746 m 51 X s 2106 777 m 26 X s 2106 807 m 26 X s 2106 837 m 26 X s
 2081 868 m 51 X s 2106 898 m 26 X s 2106 928 m 26 X s 2106 958 m 26 X s 2081 989 m 51 X s 2106 1019 m 26 X s 2106 1049 m 26 X s 2106 1080 m 26 X s 2081 1110 m 51 X s 2106 1140 m 26 X s 2106 1170 m 26 X s 2106 1201 m 26 X s 2081 1231 m 51 X s 2106
 1261 m 26 X s 2106 1291 m 26 X s 2106 1322 m 26 X s 2081 1352 m 51 X s 2106 1382 m 26 X s 2106 1413 m 26 X s 2106 1443 m 26 X s 2081 1473 m 51 X s 0 1 0 c 363 565 m 1769 X s 363 1083 m 1769 X s 363 1425 m 1769 X s 1 0 0 c[  12 12 ] 0 sd 9 lw 1 1 1 c
 black 1 0 0 c 470 1473 m 17 -75 d s 487 1398 m 17 -78 d 18 -74 d 18 -72 d 17 -69 d 18 -66 d 18 -63 d 17 -60 d 18 -57 d 18 -54 d 18 -52 d 17 -49 d 18 -46 d 18 -44 d 17 -41 d 18 -38 d 18 -35 d 17 -33 d 18 -31 d 18 -28 d 17 -25 d 18 -23 d 18 -21 d 17
 -18 d 18 -15 d 18 -13 d 18 -11 d 17 -9 d 18 -6 d 18 -4 d 17 -1 d 18 1 d 18 3 d 17 5 d 18 7 d 18 10 d 17 12 d 18 14 d 18 16 d 17 18 d 18 21 d 18 22 d 18 25 d 17 26 d 18 29 d 18 30 d 17 33 d 18 35 d 18 36 d 17 39 d 18 40 d 18 43 d 17 44 d 18 46 d 18
 48 d 18 50 d 17 52 d 18 53 d 18 56 d 17 57 d 18 59 d 18 61 d 17 62 d 18 64 d 18 66 d 7 28 d s 0 0 1 c[  ] 0 sd 1 1 1 c black 0 0 1 c 363 1336 m cl s 363 1336 m 18 -58 d 17 -56 d 18 -54 d 18 -53 d 17 -52 d 18 -50 d 18 -48 d 17 -46 d 18 -45 d 18 -43 d
 17 -42 d 18 -40 d 18 -38 d 17 -37 d 18 -35 d 18 -34 d 18 -32 d 17 -30 d 18 -29 d 18 -27 d 17 -26 d 18 -24 d 18 -22 d 17 -21 d 18 -20 d 18 -18 d 17 -16 d 18 -14 d 18 -14 d 17 -11 d 18 -10 d 18 -9 d 18 -7 d 17 -6 d 18 -4 d 18 -2 d 17 -1 d 18 X 18 2 d
 17 4 d 18 5 d 18 6 d 17 8 d 18 9 d 18 11 d 17 12 d 18 14 d 18 15 d 18 17 d 17 18 d 18 19 d 18 21 d 17 22 d 18 24 d 18 25 d 17 27 d 18 28 d 18 29 d 17 31 d 18 32 d 18 33 d 18 35 d 17 36 d 18 38 d 18 39 d 17 40 d 18 42 d 18 43 d 17 44 d 18 46 d 18 46
 d 17 49 d 18 49 d 18 51 d 17 53 d 18 53 d 18 55 d 18 56 d 7 24 d s black 3 lw 363 262 m 1769 X s 363 300 m -38 Y s 422 281 m -19 Y s 481 281 m -19 Y s 540 281 m -19 Y s 599 281 m -19 Y s 658 300 m -38 Y s 717 281 m -19 Y s 776 281 m -19 Y s 835 281
 m -19 Y s 893 281 m -19 Y s 952 300 m -38 Y s 1011 281 m -19 Y s 1070 281 m -19 Y s 1129 281 m -19 Y s 1188 281 m -19 Y s 1247 300 m -38 Y s 1306 281 m -19 Y s 1365 281 m -19 Y s 1424 281 m -19 Y s 1483 281 m -19 Y s 1542 300 m -38 Y s 1601 281 m
 -19 Y s 1660 281 m -19 Y s 1719 281 m -19 Y s 1778 281 m -19 Y s 1837 300 m -38 Y s 1896 281 m -19 Y s 1955 281 m -19 Y s 2014 281 m -19 Y s 2073 281 m -19 Y s 2132 300 m -38 Y s 2132 300 m -38 Y s 363 1473 m 1769 X s 363 1435 m 38 Y s 422 1454 m 19
 Y s 481 1454 m 19 Y s 540 1454 m 19 Y s 599 1454 m 19 Y s 658 1435 m 38 Y s 717 1454 m 19 Y s 776 1454 m 19 Y s 835 1454 m 19 Y s 893 1454 m 19 Y s 952 1435 m 38 Y s 1011 1454 m 19 Y s 1070 1454 m 19 Y s 1129 1454 m 19 Y s 1188 1454 m 19 Y s 1247
 1435 m 38 Y s 1306 1454 m 19 Y s 1365 1454 m 19 Y s 1424 1454 m 19 Y s 1483 1454 m 19 Y s 1542 1435 m 38 Y s 1601 1454 m 19 Y s 1660 1454 m 19 Y s 1719 1454 m 19 Y s 1778 1454 m 19 Y s 1837 1435 m 38 Y s 1896 1454 m 19 Y s 1955 1454 m 19 Y s 2014
 1454 m 19 Y s 2073 1454 m 19 Y s 2132 1435 m 38 Y s 2132 1435 m 38 Y s 363 262 m 1211 Y s 413 262 m -50 X s 388 292 m -25 X s 388 322 m -25 X s 388 353 m -25 X s 413 383 m -50 X s 388 413 m -25 X s 388 444 m -25 X s 388 474 m -25 X s 413 504 m -50 X
 s 388 534 m -25 X s 388 565 m -25 X s 388 595 m -25 X s 413 625 m -50 X s 388 656 m -25 X s 388 686 m -25 X s 388 716 m -25 X s 413 746 m -50 X s 388 777 m -25 X s 388 807 m -25 X s 388 837 m -25 X s 413 868 m -50 X s 388 898 m -25 X s 388 928 m -25
 X s 388 958 m -25 X s 413 989 m -50 X s 388 1019 m -25 X s 388 1049 m -25 X s 388 1080 m -25 X s 413 1110 m -50 X s 388 1140 m -25 X s 388 1170 m -25 X s 388 1201 m -25 X s 413 1231 m -50 X s 388 1261 m -25 X s 388 1291 m -25 X s 388 1322 m -25 X s
 413 1352 m -50 X s 388 1382 m -25 X s 388 1413 m -25 X s 388 1443 m -25 X s 413 1473 m -50 X s 2132 262 m 1211 Y s 2081 262 m 51 X s 2106 292 m 26 X s 2106 322 m 26 X s 2106 353 m 26 X s 2081 383 m 51 X s 2106 413 m 26 X s 2106 444 m 26 X s 2106 474
 m 26 X s 2081 504 m 51 X s 2106 534 m 26 X s 2106 565 m 26 X s 2106 595 m 26 X s 2081 625 m 51 X s 2106 656 m 26 X s 2106 686 m 26 X s 2106 716 m 26 X s 2081 746 m 51 X s 2106 777 m 26 X s 2106 807 m 26 X s 2106 837 m 26 X s 2081 868 m 51 X s 2106
 898 m 26 X s 2106 928 m 26 X s 2106 958 m 26 X s 2081 989 m 51 X s 2106 1019 m 26 X s 2106 1049 m 26 X s 2106 1080 m 26 X s 2081 1110 m 51 X s 2106 1140 m 26 X s 2106 1170 m 26 X s 2106 1201 m 26 X s 2081 1231 m 51 X s 2106 1261 m 26 X s 2106 1291 m
 26 X s 2106 1322 m 26 X s 2081 1352 m 51 X s 2106 1382 m 26 X s 2106 1413 m 26 X s 2106 1443 m 26 X s 2081 1473 m 51 X s
 gr  gr showpage
end
%%EOF
