%!PS-Adobe-2.0 EPSF-2.0
%%BoundingBox:  0 0 567 407
%%Title: ./results/example_channel1_GaussExample_profileLR.eps: 
%%Creator: ROOT Version 6.22/06
%%CreationDate: Thu Feb 25 05:22:19 2021
%%DocumentNeededResources: ProcSet (FontSetInit)
%%EndComments
%%BeginProlog
80 dict begin
/s {stroke} def /l {lineto} def /m {moveto} def /t {translate} def
/r {rotate} def /rl {roll}  def /R {repeat} def
/d {rlineto} def /rm {rmoveto} def /gr {grestore} def /f {eofill} def
/c {setrgbcolor} def /black {0 setgray} def /sd {setdash} def
/cl {closepath} def /sf {scalefont setfont} def /lw {setlinewidth} def
/box {m dup 0 exch d exch 0 d 0 exch neg d cl} def
/NC{systemdict begin initclip end}def/C{NC box clip newpath}def
/bl {box s} def /bf {gsave box gsave f grestore 1 lw [] 0 sd s grestore} def /Y { 0 exch d} def /X { 0 d} def 
/K {{pop pop 0 moveto} exch kshow} bind def
/ita {/ang 15 def gsave [1 0 ang dup sin exch cos div 1 0 0] concat} def 
/mp {newpath /y exch def /x exch def} def
/side {[w .77 mul w .23 mul] .385 w mul sd w 0 l currentpoint t -144 r} def
/mr {mp x y w2 0 360 arc} def /m24 {mr s} def /m20 {mr f} def
/mb {mp x y w2 add m w2 neg 0 d 0 w neg d w 0 d 0 w d cl} def
/mt {mp x y w2 add m w2 neg w neg d w 0 d cl} def
/w4 {w 4 div} def
/w6 {w 6 div} def
/w8 {w 8 div} def
/m21 {mb f} def /m25 {mb s} def /m22 {mt f} def /m26{mt s} def
/m23 {mp x y w2 sub m w2 w d w neg 0 d cl f} def
/m27 {mp x y w2 add m w3 neg w2 neg d w3 w2 neg d w3 w2 d cl s} def
/m28 {mp x w2 sub y w2 sub w3 add m w3 0 d  0 w3 neg d w3 0 d 0 w3 d w3 0 d  0 w3 d w3 neg 0 d 0 w3 d w3 neg 0 d 0 w3 neg d w3 neg 0 d cl s } def
/m29 {mp gsave x w2 sub y w2 add w3 sub m currentpoint t 4 {side} repeat cl fill gr} def
/m30 {mp gsave x w2 sub y w2 add w3 sub m currentpoint t 4 {side} repeat cl s gr} def
/m31 {mp x y w2 sub m 0 w d x w2 sub y m w 0 d x w2 .707 mul sub y w2 .707 mul add m w 1.44 div w 1.44 div neg d x w2 .707 mul sub y w2 .707 mul sub m w 1.44 div w 1.44 div d s} def
/m32 {mp x y w2 sub m w2 w d w neg 0 d cl s} def
/m33 {mp x y w2 add m w3 neg w2 neg d w3 w2 neg d w3 w2 d cl f} def
/m34 {mp x w2 sub y w2 sub w3 add m w3 0 d  0 w3 neg d w3 0 d 0 w3 d w3 0 d  0 w3 d w3 neg 0 d 0 w3 d w3 neg 0 d 0 w3 neg d w3 neg 0 d cl f } def
/m35 {mp x y w2 add m w2 neg w2 neg d w2 w2 neg d w2 w2 d w2 neg w2 d x y w2 sub m 0 w d x w2 sub y m w 0 d s} def
/m36 {mb x w2 sub y w2 add m w w neg d x w2 sub y w2 sub m w w d s} def
/m37 {mp x y m w4 neg w2 d w4 neg w2 neg d w2 0 d  w4 neg w2 neg d w2 0 d w4 neg w2 d w2 0 d w4 neg w2 d w4 neg w2 neg d cl s} def
/m38 {mp x w4 sub y w2 add m w4 neg w4 neg d 0 w2 neg d w4 w4 neg d w2 0 d w4 w4 d 0 w2 d w4 neg w4 d w2 neg 0 d x y w2 sub m 0 w d x w2 sub y m w 0 d cl s} def
/m39 {mp x y m w4 neg w2 d w4 neg w2 neg d w2 0 d  w4 neg w2 neg d w2 0 d w4 neg w2 d w2 0 d w4 neg w2 d w4 neg w2 neg d cl f} def
/m40 {mp x y m w4 w2 d w4 w4 neg d w2 neg w4 neg d w2 w4 neg d w4 neg w4 neg d w4 neg w2 d w4 neg w2 neg d w4 neg w4 d w2 w4 d w2 neg w4 d w4 w4 d w4 w2 neg d cl s} def
/m41 {mp x y m w4 w2 d w4 w4 neg d w2 neg w4 neg d w2 w4 neg d w4 neg w4 neg d w4 neg w2 d w4 neg w2 neg d w4 neg w4 d w2 w4 d w2 neg w4 d w4 w4 d w4 w2 neg d cl f} def
/m42 {mp x y w2 add m w8 neg w2 -3 4 div mul d w2 -3 4 div mul w8 neg d w2 3 4 div mul w8 neg d w8 w2 -3 4 div mul d w8 w2 3 4 div mul d w2 3 4 div mul w8 d w2 -3 4 div mul w8 d w8 neg w2 3 4 div mul d cl s} def
/m43 {mp x y w2 add m w8 neg w2 -3 4 div mul d w2 -3 4 div mul w8 neg d w2 3 4 div mul w8 neg d w8 w2 -3 4 div mul d w8 w2 3 4 div mul d w2 3 4 div mul w8 d w2 -3 4 div mul w8 d w8 neg w2 3 4 div mul d cl f} def
/m44 {mp x y m w6 neg w2 d w2 2 3 div mul 0 d w6 neg w2 neg d w2 w6 d 0 w2 -2 3 div mul d w2 neg w6 d w6 w2 neg d w2 -2 3 div mul 0 d w6 w2 d w2 neg w6 neg d 0 w2 2 3 div mul d w2 w6 neg d cl s} def
/m45 {mp x y m w6 neg w2 d w2 2 3 div mul 0 d w6 neg w2 neg d w2 w6 d 0 w2 -2 3 div mul d w2 neg w6 d w6 w2 neg d w2 -2 3 div mul 0 d w6 w2 d w2 neg w6 neg d 0 w2 2 3 div mul d w2 w6 neg d cl f} def
/m46 {mp x y w4 add m w4 neg w4 d w4 neg w4 neg d  w4 w4 neg d w4 neg w4 neg d w4 w4 neg d w4 w4 d w4 w4 neg d w4 w4 d w4 neg w4 d w4 w4 d w4 neg w4 d w4 neg w4 neg d cl s} def
/m47 {mp x y w4 add m w4 neg w4 d w4 neg w4 neg d w4 w4 neg d w4 neg w4 neg d  w4 w4 neg d w4 w4 d w4 w4 neg d w4 w4 d w4 neg w4 d w4 w4 d w4 neg w4 d w4 neg w4 neg d cl f} def
/m48 {mp x y w4 add m w4 neg w4 d w4 neg w4 neg d w4 w4 neg d  w4 neg w4 neg d w4 w4 neg d w4 w4 d w4 w4 neg d w4 w4 d w4 neg w4 d w4 w4 d w4 neg w4 d w4 neg w4 neg d  w4 w4 neg d w4 neg w4 neg d w4 neg w4 d w4 w4 d cl f} def
/m49 {mp x w2 sub w3 add y w2 sub w3 add m  0 w3 neg d w3 0 d 0 w3 d w3 0 d 0 w3 d w3 neg 0 d 0 w3 d w3 neg 0 d 0 w3 neg d w3 neg 0 d 0 w3 neg d w3 0 d 0 w3 d w3 0 d 0 w3 neg d w3 neg 0 d cl f } def
/m2 {mp x y w2 sub m 0 w d x w2 sub y m w 0 d s} def
/m5 {mp x w2 .707 mul sub y w2 .707 mul sub m w 1.44 div w 1.44 div d x w2 .707 mul sub y w2 .707 mul add m w 1.44 div w 1.44 div neg d s} def
%%IncludeResource: ProcSet (FontSetInit)
%%IncludeResource: font Times-Roman
%%IncludeResource: font Times-Italic
%%IncludeResource: font Times-Bold
%%IncludeResource: font Times-BoldItalic
%%IncludeResource: font Helvetica
%%IncludeResource: font Helvetica-Oblique
%%IncludeResource: font Helvetica-Bold
%%IncludeResource: font Helvetica-BoldOblique
%%IncludeResource: font Courier
%%IncludeResource: font Courier-Oblique
%%IncludeResource: font Courier-Bold
%%IncludeResource: font Courier-BoldOblique
%%IncludeResource: font Symbol
%%IncludeResource: font ZapfDingbats
/reEncode {exch findfont dup length dict begin {1 index /FID eq  {pop pop} {def} ifelse } forall /Encoding exch def currentdict end dup /FontName get exch definefont pop } def [/Times-Bold /Times-Italic /Times-BoldItalic /Helvetica /Helvetica-Oblique
 /Helvetica-Bold /Helvetica-BoldOblique /Courier /Courier-Oblique /Courier-Bold /Courier-BoldOblique /Times-Roman /AvantGarde-Book /AvantGarde-BookOblique /AvantGarde-Demi /AvantGarde-DemiOblique /Bookman-Demi /Bookman-DemiItalic /Bookman-Light
 /Bookman-LightItalic /Helvetica-Narrow /Helvetica-Narrow-Bold /Helvetica-Narrow-BoldOblique /Helvetica-Narrow-Oblique /NewCenturySchlbk-Roman /NewCenturySchlbk-Bold /NewCenturySchlbk-BoldItalic /NewCenturySchlbk-Italic /Palatino-Bold
 /Palatino-BoldItalic /Palatino-Italic /Palatino-Roman ] {ISOLatin1Encoding reEncode } forall
%%EndProlog
%%BeginSetup
%%EndSetup
newpath  gsave  .25 .25 scale  gsave  0 0 t black[  ] 0 sd 3 lw 1 1 1 c 2268 1630 0 0 bf black 1 1 1 c 1814 1304 227 163 bf black 1814 1304 227 163 bl 227 163 m 1814 X s 227 202 m -39 Y s 287 183 m -20 Y s 348 183 m -20 Y s 408 183 m -20 Y s 469 183
 m -20 Y s 529 202 m -39 Y s 590 183 m -20 Y s 650 183 m -20 Y s 711 183 m -20 Y s 771 183 m -20 Y s 831 202 m -39 Y s 892 183 m -20 Y s 952 183 m -20 Y s 1013 183 m -20 Y s 1073 183 m -20 Y s 1134 202 m -39 Y s 1194 183 m -20 Y s 1255 183 m -20 Y s
 1315 183 m -20 Y s 1376 183 m -20 Y s 1436 202 m -39 Y s 1497 183 m -20 Y s 1557 183 m -20 Y s 1618 183 m -20 Y s 1678 183 m -20 Y s 1739 202 m -39 Y s 1799 183 m -20 Y s 1860 183 m -20 Y s 1920 183 m -20 Y s 1980 183 m -20 Y s 2041 202 m -39 Y s
 2041 202 m -39 Y s
 gsave  2268 1630 0 0 C 210.818 111.107 t 0 r /Helvetica findfont 54.1289 sf 0 0 m (0) show NC gr 
 gsave  2268 1630 0 0 C 490.009 111.107 t 0 r /Helvetica findfont 54.1289 sf 0 0 m (0.5) show NC gr 
 gsave  2268 1630 0 0 C 817.631 111.107 t 0 r /Helvetica findfont 54.1289 sf 0 0 m (1) show NC gr 
 gsave  2268 1630 0 0 C 1096.82 111.107 t 0 r /Helvetica findfont 54.1289 sf 0 0 m (1.5) show NC gr 
 gsave  2268 1630 0 0 C 1421.6 111.107 t 0 r /Helvetica findfont 54.1289 sf 0 0 m (2) show NC gr 
 gsave  2268 1630 0 0 C 1700.79 111.107 t 0 r /Helvetica findfont 54.1289 sf 0 0 m (2.5) show NC gr 
 gsave  2268 1630 0 0 C 2025.56 111.107 t 0 r /Helvetica findfont 54.1289 sf 0 0 m (3) show NC gr 
 gsave  2268 1630 0 0 C 1646.66 56.9778 t 0 r /Helvetica findfont 54.1289 sf 0 0 m (SigXsecOverSM) show NC gr  227 163 m 1304 Y s 281 163 m -54 X s 254 196 m -27 X s 254 228 m -27 X s 254 261 m -27 X s 281 293 m -54 X s 254 326 m -27 X s 254 359 m
 -27 X s 254 391 m -27 X s 281 424 m -54 X s 254 456 m -27 X s 254 489 m -27 X s 254 521 m -27 X s 281 554 m -54 X s 254 587 m -27 X s 254 619 m -27 X s 254 652 m -27 X s 281 684 m -54 X s 254 717 m -27 X s 254 750 m -27 X s 254 782 m -27 X s 281 815
 m -54 X s 254 847 m -27 X s 254 880 m -27 X s 254 913 m -27 X s 281 945 m -54 X s 254 978 m -27 X s 254 1010 m -27 X s 254 1043 m -27 X s 281 1076 m -54 X s 254 1108 m -27 X s 254 1141 m -27 X s 254 1173 m -27 X s 281 1206 m -54 X s 254 1238 m -27 X
 s 254 1271 m -27 X s 254 1304 m -27 X s 281 1336 m -54 X s 254 1369 m -27 X s 254 1401 m -27 X s 254 1434 m -27 X s 281 1467 m -54 X s
 gsave  2268 1630 0 0 C 185.178 145.293 t 0 r /Helvetica findfont 54.1289 sf 0 0 m (0) show NC gr 
 gsave  2268 1630 0 0 C 139.596 273.493 t 0 r /Helvetica findfont 54.1289 sf 0 0 m (0.2) show NC gr 
 gsave  2268 1630 0 0 C 139.596 404.542 t 0 r /Helvetica findfont 54.1289 sf 0 0 m (0.4) show NC gr 
 gsave  2268 1630 0 0 C 139.596 535.591 t 0 r /Helvetica findfont 54.1289 sf 0 0 m (0.6) show NC gr 
 gsave  2268 1630 0 0 C 139.596 666.64 t 0 r /Helvetica findfont 54.1289 sf 0 0 m (0.8) show NC gr 
 gsave  2268 1630 0 0 C 193.725 791.991 t 0 r /Helvetica findfont 54.1289 sf 0 0 m (1) show NC gr 
 gsave  2268 1630 0 0 C 139.596 923.04 t 0 r /Helvetica findfont 54.1289 sf 0 0 m (1.2) show NC gr 
 gsave  2268 1630 0 0 C 139.596 1054.09 t 0 r /Helvetica findfont 54.1289 sf 0 0 m (1.4) show NC gr 
 gsave  2268 1630 0 0 C 139.596 1187.99 t 0 r /Helvetica findfont 54.1289 sf 0 0 m (1.6) show NC gr 
 gsave  2268 1630 0 0 C 139.596 1319.04 t 0 r /Helvetica findfont 54.1289 sf 0 0 m (1.8) show NC gr 
 gsave  2268 1630 0 0 C 185.178 1444.39 t 0 r /Helvetica findfont 54.1289 sf 0 0 m (2) show NC gr 
 gsave  2268 1630 0 0 C 85.4667 1136.71 t 90 r /Helvetica findfont 54.1289 sf 0 0 m (\255log likelihood) show NC gr  0 1 0 c 227 489 m 1814 X s 227 1046 m 1814 X s 227 1414 m 1814 X s 1 0 0 c[ 12 12] 0 sd 9 lw 1 1 1 c black 1 0 0 c 337 1467 m 17 -82
 d s 354 1385 m 18 -83 d 18 -80 d 18 -77 d 18 -74 d 18 -71 d 19 -68 d 18 -65 d 18 -61 d 18 -59 d 18 -55 d 18 -53 d 18 -50 d 19 -47 d 18 -44 d 18 -41 d 18 -38 d 18 -36 d 18 -33 d 18 -30 d 19 -27 d 18 -25 d 18 -22 d 18 -19 d 18 -17 d 18 -14 d 18 -12 d
 19 -9 d 18 -6 d 18 -4 d 18 -2 d 18 1 d 18 3 d 18 6 d 19 8 d 18 10 d 18 13 d 18 15 d 18 17 d 18 20 d 18 22 d 19 24 d 18 26 d 18 29 d 18 31 d 18 33 d 18 35 d 18 37 d 19 39 d 18 42 d 18 43 d 18 46 d 18 48 d 18 49 d 18 52 d 19 54 d 18 56 d 18 57 d 18 60
 d 18 61 d 18 64 d 18 65 d 19 68 d 18 69 d 18 71 d 7 30 d s 0 0 1 c[  ] 0 sd 1 1 1 c black 0 0 1 c 227 1319 m cl s 227 1319 m 18 -62 d 18 -61 d 18 -58 d 18 -57 d 18 -56 d 19 -53 d 18 -52 d 18 -50 d 18 -48 d 18 -47 d 18 -45 d 18 -43 d 19 -41 d 18 -40
 d 18 -37 d 18 -37 d 18 -34 d 18 -33 d 18 -31 d 19 -29 d 18 -28 d 18 -26 d 18 -24 d 18 -22 d 18 -21 d 18 -19 d 19 -18 d 18 -16 d 18 -14 d 18 -12 d 18 -11 d 18 -9 d 18 -8 d 19 -6 d 18 -4 d 18 -3 d 18 -1 d 18 1 d 18 2 d 18 3 d 19 6 d 18 7 d 18 8 d 18
 10 d 18 12 d 18 13 d 18 15 d 19 16 d 18 18 d 18 19 d 18 21 d 18 23 d 18 24 d 18 25 d 19 27 d 18 29 d 18 30 d 18 31 d 18 33 d 18 35 d 18 36 d 19 37 d 18 39 d 18 41 d 18 41 d 18 44 d 18 45 d 18 46 d 19 48 d 18 49 d 18 50 d 18 52 d 18 54 d 18 54 d 18
 57 d 19 57 d 18 59 d 18 61 d 7 26 d s black 3 lw 227 163 m 1814 X s 227 202 m -39 Y s 287 183 m -20 Y s 348 183 m -20 Y s 408 183 m -20 Y s 469 183 m -20 Y s 529 202 m -39 Y s 590 183 m -20 Y s 650 183 m -20 Y s 711 183 m -20 Y s 771 183 m -20 Y s
 831 202 m -39 Y s 892 183 m -20 Y s 952 183 m -20 Y s 1013 183 m -20 Y s 1073 183 m -20 Y s 1134 202 m -39 Y s 1194 183 m -20 Y s 1255 183 m -20 Y s 1315 183 m -20 Y s 1376 183 m -20 Y s 1436 202 m -39 Y s 1497 183 m -20 Y s 1557 183 m -20 Y s 1618
 183 m -20 Y s 1678 183 m -20 Y s 1739 202 m -39 Y s 1799 183 m -20 Y s 1860 183 m -20 Y s 1920 183 m -20 Y s 1980 183 m -20 Y s 2041 202 m -39 Y s 2041 202 m -39 Y s 227 163 m 1304 Y s 281 163 m -54 X s 254 196 m -27 X s 254 228 m -27 X s 254 261 m
 -27 X s 281 293 m -54 X s 254 326 m -27 X s 254 359 m -27 X s 254 391 m -27 X s 281 424 m -54 X s 254 456 m -27 X s 254 489 m -27 X s 254 521 m -27 X s 281 554 m -54 X s 254 587 m -27 X s 254 619 m -27 X s 254 652 m -27 X s 281 684 m -54 X s 254 717
 m -27 X s 254 750 m -27 X s 254 782 m -27 X s 281 815 m -54 X s 254 847 m -27 X s 254 880 m -27 X s 254 913 m -27 X s 281 945 m -54 X s 254 978 m -27 X s 254 1010 m -27 X s 254 1043 m -27 X s 281 1076 m -54 X s 254 1108 m -27 X s 254 1141 m -27 X s
 254 1173 m -27 X s 281 1206 m -54 X s 254 1238 m -27 X s 254 1271 m -27 X s 254 1304 m -27 X s 281 1336 m -54 X s 254 1369 m -27 X s 254 1401 m -27 X s 254 1434 m -27 X s 281 1467 m -54 X s
 gr  gr showpage
end
%%EOF
